21 データベース – R for Data Science (2e)
…
実際のプロジェクトで duckdb を使用する場合は、duckdb_read_csv() と duckdb_register_arrow() について学ぶことを強くお勧めします。 これらは、最初に R に読み込むことなく、データを duckdb に直接迅速にロードするための強力でパフォーマンスの高い方法を提供します。 Section 26.4.1 では、複数のファイルをデータベースにロードするための便利な手法も紹介します。

21.3.3 DBI の基本

他のいくつかの DBI 関数を使用して、データが正しくロードされたかを確認できます。dbListTables() はデータベース内のすべてのテーブルをリストし2、dbReadTable() はテーブルの内容を取得します。

dbListTables(con)
#> [1] "diamonds" "mpg"

con |>
  dbReadTable("diamonds") |>
  as_tibble()
#> # A tibble: 53,940 × 10
#>   carat cut       color clarity depth table price     x     y     z
#>   <dbl> <fct>     <fct> <fct>   <dbl> <dbl> <int> <dbl> <dbl> <dbl>
#> 1  0.23 Ideal     E     SI2      61.5    55   326  3.95  3.98  2.43
#> 2  0.21 Premium   E     SI1      59.8    61   326  3.89  3.84  2.31
#> 3  0.23 Good      E     VS1      56.9    65   327  4.05  4.07  2.31
#> 4  0.29 Premium   I     VS2      62.4    58   334  4.2   4.23  2.63
#> 5  0.31 Good      J     SI2      63.3    58   335  4.34  4.35  2.75
#> 6  0.24 Very Good J     VVS2     62.8    57   336  3.94  3.96  2.48
#> # ℹ 53,934 more rows

dbReadTable() は data.frame を返すため、as_tibble() を使用して tibble に変換し、綺麗に表示されるようにします。 すでに SQL を知っている場合は、dbGetQuery() を使用してデータベースでクエリを実行した結果を取得できます。

sql <- "
  SELECT carat, cut, clarity, color, price
  FROM diamonds
  WHERE price > 15000
"
as_tibble(dbGetQuery(con, sql))
#> # A tibble: 1,655 × 5
#>   carat cut       clarity color price
#>   <dbl> <fct>     <fct>   <fct> <int>
#> 1  1.54 Premium   VS2     E     15002
#> 2  1.19 Ideal     VVS1    F     15005
#> 3  2.1  Premium   SI1     I     15007
#> 4  1.69 Ideal     SI1     D     15011
#> 5  1.5  Very Good VVS2    G     15013
#> 6  1.73 Very Good VS1     G     15014
#> # ℹ 1,649 more rows
…
このオブジェクトがデータベースクエリを表していることは、上部に DBMS 名が表示されていることからわかります。また、列の数は示されていますが、通常、行の数はわかりません。 これは、総行数を確認するには通常クエリ全体を実行する必要があり、それを避けようとしているためです。 dplyr 関数の show_query() を使うと、生成された SQL コードを確認できます。 dplyr を知っているなら、これは SQL を学ぶのに最適な方法です。 dplyr のコードを書き、dbplyr に SQL へ翻訳させ、2 つの言語がどのように対応しているかを確認してみてください。

big_diamonds_db |>
  show_query()
#> <SQL>
#> SELECT carat, cut, color, clarity, price
#> FROM diamonds
#> WHERE (price > 15000.0)

すべてのデータを R に戻すには、collect() を呼び出します。 舞台裏では、これが SQL を生成し、dbGetQuery() を呼び出してデータを取得し、結果を tibble に変換します。

big_diamonds <- big_diamonds_db |>
  collect()
big_diamonds
#> # A tibble: 1,655 × 5
#>   carat cut       color clarity price
#>   <dbl> <fct>     <fct> <fct>   <int>
#> 1  1.54 Premium   E     VS2     15002
#> 2  1.19 Ideal     F     VVS1    15005
#> 3  2.1  Premium   I     SI1     15007
#> 4  1.69 Ideal     D     SI1     15011
#> 5  1.5  Very Good G     VVS2    15013
#> 6  1.73 Very Good G     VS1     15014
#> # ℹ 1,649 more rows
…
