7 データのインポート – R for Data Science (2e)
…
7.4 複数のファイルからのデータの読み込み

データが単一のファイルに含まれているのではなく、複数のファイルに分かれていることがあります 。例えば、複数月分の売上データがあり、各月のデータが個別のファイル（1月は 01-sales.csv、2月は 02-sales.csv、3月は 03-sales.csv）になっているような場合です 。read_csv() を使うと、これらのデータを一度に読み込み、単一のデータフレームに積み重ねることができます 。

sales_files <- c("data/01-sales.csv", "data/02-sales.csv", "data/03-sales.csv")
read_csv(sales_files, id = "file")
#> # A tibble: 19 × 6
#>   file              month    year brand  item     n
#>   <chr>             <chr>   <dbl> <dbl> <dbl> <dbl>
#> 1 data/01-sales.csv January  2019     1  1234     3
#> 2 data/01-sales.csv January  2019     1  8721     9
#> 3 data/01-sales.csv January  2019     1  1822     2
#> 4 data/01-sales.csv January  2019     2  3333     1
#> 5 data/01-sales.csv January  2019     2  2156     9
#> 6 data/01-sales.csv January  2019     2  3987     6
#> # ℹ 13 more rows
…
