12 論理ベクトル – R for Data Science (2e)
…
しかし、より多くのツールをカバーし始めると、常に完璧な実例があるとは限りません 。そこで、c() を使ってダミーデータを作成することから始めます 。

x <- c(1, 2, 3, 5, 7, 11, 13)
x * 2
#> [1]  2  4  6 10 14 22 26

これにより、データの問題にどのように適用されるかを確認するのが難しくなる代わりに、個々の関数の説明が容易になります 。浮遊しているベクトル（free-floating vector）に対して行う操作は、mutate() などを使用してデータフレーム内の変数に対しても行えることを覚えておいてください 。

df <- tibble(x)
df |>
  mutate(y = x * 2)
#> # A tibble: 7 × 2
#>       x     y
#>   <dbl> <dbl>
#> 1     1     2
#> 2     2     4
#> 3     3     6
#> 4     5    10
#> 5     7    14
#> 6    11    22
#> # ℹ 1 more row

12.2 比較

論理ベクトルを作成する非常に一般的な方法は、<、<=、>、>=、!=、== を使用した数値の比較です 。これまでは、主に filter() 内で一時的に論理変数を作成してきました。それらは計算され、使用され、そして破棄されます 。たとえば、次のフィルタリングは、ほぼ時間通りに到着した日中の出発便をすべて見つけます 。

flights |>
  filter(dep_time > 600 & dep_time < 2000 & abs(arr_delay) < 20)
#> # A tibble: 172,286 × 19
#>    year month   day dep_time sched_dep_time dep_delay arr_time sched_arr_time
#>   <int> <int> <int>    <int>          <int>     <dbl>    <int>          <int>
#> 1  2013     1     1      601            600         1      844            850
#> 2  2013     1     1      602            610        -8      812            820
#> 3  2013     1     1      602            605        -3      821            805
#> 4  2013     1     1      606            610        -4      858            910
#> 5  2013     1     1      606            610        -4      837            845
#> 6  2013     1     1      607            607         0      858            915
#> # ℹ 172,280 more rows
#> # ℹ 11 more variables: arr_delay <dbl>, carrier <chr>, flight <int>, …

これがショートカットであることを知っておくと便利です。mutate() を使って、背後にある論理変数を明示的に作成することもできます 。

flights |>
  mutate(
    daytime = dep_time > 600 & dep_time < 2000,
    approx_ontime = abs(arr_delay) < 20,
    .keep = "used"
  )
#> # A tibble: 336,776 × 4
#>   dep_time arr_delay daytime approx_ontime
#>      <int>     <dbl> <lgl>   <lgl>        
#> 1      517        11 FALSE   TRUE         
#> 2      533        20 FALSE   FALSE        
#> 3      542        33 FALSE   FALSE        
#> 4      544       -18 FALSE   TRUE         
#> 5      554       -25 FALSE   FALSE        
#> 6      554        12 FALSE   TRUE         
#> # ℹ 336,770 more rows
…
is.na(x) はあらゆる型のベクトルに対して機能し、欠損値に対しては TRUE を、それ以外に対しては FALSE を返します 。

is.na(c(TRUE, NA, FALSE))
#> [1] FALSE  TRUE FALSE
is.na(c(1, NA, 3))
#> [1] FALSE  TRUE FALSE
is.na(c("a", NA, "b"))
#> [1] FALSE  TRUE FALSE

is.na() を使用して、dep_time が欠損しているすべての行を見つけることができます 。

flights |>
  filter(is.na(dep_time))
#> # A tibble: 8,255 × 19
#>    year month   day dep_time sched_dep_time dep_delay arr_time sched_arr_time
#>   <int> <int> <int>    <int>          <int>     <dbl>    <int>          <int>
#> 1  2013     1     1       NA           1630        NA       NA           1815
#> 2  2013     1     1       NA           1935        NA       NA           2240
#> 3  2013     1     1       NA           1500        NA       NA           1825
#> 4  2013     1     1       NA            600        NA       NA            901
#> 5  2013     1     2       NA           1540        NA       NA           1747
#> 6  2013     1     2       NA           1620        NA       NA           1746
#> # ℹ 8,249 more rows
#> # ℹ 11 more variables: arr_delay <dbl>, carrier <chr>, flight <int>, …

is.na() は arrange() においても有用です 。arrange() は通常、すべての欠損値を最後に配置しますが、まず is.na() でソートすることで、このデフォルトを上書きできます 。

flights |>
  filter(month == 1, day == 1) |>
  arrange(dep_time)
#> # A tibble: 842 × 19
#>    year month   day dep_time sched_dep_time dep_delay arr_time sched_arr_time
#>   <int> <int> <int>    <int>          <int>     <dbl>    <int>          <int>
#> 1  2013     1     1      517            515         2      830            819
#> 2  2013     1     1      533            529         4      850            830
#> 3  2013     1     1      542            540         2      923            850
#> 4  2013     1     1      544            545        -1     1004           1022
#> 5  2013     1     1      554            600        -6      812            837
#> 6  2013     1     1      554            558        -4      740            728
#> # ℹ 836 more rows
#> # ℹ 11 more variables: arr_delay <dbl>, carrier <chr>, flight <int>, …

flights |>
  filter(month == 1, day == 1) |>
  arrange(desc(is.na(dep_time)), dep_time)
#> # A tibble: 842 × 19
#>    year month   day dep_time sched_dep_time dep_delay arr_time sched_arr_time
#>   <int> <int> <int>    <int>          <int>     <dbl>    <int>          <int>
#> 1  2013     1     1       NA           1630        NA       NA           1815
#> 2  2013     1     1       NA           1935        NA       NA           2240
#> 3  2013     1     1       NA           1500        NA       NA           1825
#> 4  2013     1     1       NA            600        NA       NA            901
#> 5  2013     1     1      517            515         2      830            819
#> 6  2013     1     1      533            529         4      850            830
#> # ℹ 836 more rows
#> # ℹ 11 more variables: arr_delay <dbl>, carrier <chr>, flight <int>, …
…
& に対しても、両方の条件が満たされなければならないことを考慮すると、同様の推論が当てはまります 。したがって、NA & TRUE は NA ですが（NA の値に依存するため）、NA & FALSE は少なくとも一方の条件が FALSE であることが確定しているため、FALSE になります 。

12.3.2 演算の順序

演算の順序は、自然言語（英語や日本語）のようには機能しないことに注意してください 。11月または12月に出発したすべてのフライトを見つける次のコードを見てみましょう 。

flights |>
   filter(month == 11 | month == 12)

これを、日常会話で「11月か12月に出発したフライトを見つけて」と言うように書きたくなるかもしれません 。

flights |>
   filter(month == 11 | 12)
#> # A tibble: 336,776 × 19
#>    year month   day dep_time sched_dep_time dep_delay arr_time sched_arr_time
#>   <int> <int> <int>    <int>          <int>     <dbl>    <int>          <int>
#> 1  2013     1     1      517            515         2      830            819
#> 2  2013     1     1      533            529         4      850            830
#> 3  2013     1     1      542            540         2      923            850
#> 4  2013     1     1      544            545        -1     1004           1022
#> 5  2013     1     1      554            600        -6      812            837
#> 6  2013     1     1      554            558        -4      740            728
#> # ℹ 336,770 more rows
#> # ℹ 11 more variables: arr_delay <dbl>, carrier <chr>, flight <int>, …

このコードはエラーになりませんが、期待通りには動作していないようです 。何が起きているのでしょうか？ ここで R はまず month == 11 を評価し、論理ベクトル（これを nov と呼びます）を作成します 。次に、nov | 12 を計算します 。論理演算子とともに数値を使用すると、0 以外のすべてが TRUE に変換されます。したがって、これは nov | TRUE と同等であり、常に TRUE になるため、すべての行が選択されてしまいます 。

flights |>
  mutate(
    nov = month == 11,
    final = nov | 12,
    .keep = "used"
  )
#> # A tibble: 336,776 × 3
#>   month nov   final
#>   <int> <lgl> <lgl>
#> 1     1 FALSE TRUE 
#> 2     1 FALSE TRUE 
#> 3     1 FALSE TRUE 
#> 4     1 FALSE TRUE 
#> 5     1 FALSE TRUE 
#> 6     1 FALSE TRUE 
#> # ℹ 336,770 more rows
…
flights |>
  filter(month %in% c(11, 12))

なお、%in% は NA に関して == とは異なるルールに従います。NA %in% NA は TRUE です 。

c(1, 2, NA) == NA
#> [1] NA NA NA
c(1, 2, NA) %in% NA
#> [1] FALSE FALSE  TRUE

これは便利なショートカットになります 。

flights |>
  filter(dep_time %in% c(NA, 0800))
#> # A tibble: 8,803 × 19
#>    year month   day dep_time sched_dep_time dep_delay arr_time sched_arr_time
#>   <int> <int> <int>    <int>          <int>     <dbl>    <int>          <int>
#> 1  2013     1     1      800            800         0     1022           1014
#> 2  2013     1     1      800            810       -10      949            955
#> 3  2013     1     1       NA           1630        NA       NA           1815
#> 4  2013     1     1       NA           1935        NA       NA           2240
#> 5  2013     1     1       NA           1500        NA       NA           1825
#> 6  2013     1     1       NA            600        NA       NA            901
#> # ℹ 8,797 more rows
#> # ℹ 11 more variables: arr_delay <dbl>, carrier <chr>, flight <int>, …
…
12.4.1 論理値の要約

主な論理値の要約関数は any() と all() の2つです 。any(x) は |（または）に相当し、x の中に一つでも TRUE があれば TRUE を返します 。all(x) は &（かつ）に相当し、x のすべての値が TRUE である場合にのみ TRUE を返します 。ほとんどの要約関数と同様に、na.rm = TRUE を指定することで欠損値を除外できます 。

たとえば、all() と any() を使用して、すべてのフライトの出発遅延が最大でも1時間以内だったか、あるいは到着が5時間以上遅れたフライトがあったかどうかを確認できます 。group_by() を併用すれば、これを日ごとに調べることができます 。

flights |>
  group_by(year, month, day) |>
  summarize(
    all_delayed = all(dep_delay <= 60, na.rm = TRUE),
    any_long_delay = any(arr_delay >= 300, na.rm = TRUE),
    .groups = "drop"
  )
#> # A tibble: 365 × 5
#>    year month   day all_delayed any_long_delay
#>   <int> <int> <int> <lgl>       <lgl>         
#> 1  2013     1     1 FALSE       TRUE          
#> 2  2013     1     2 FALSE       TRUE          
#> 3  2013     1     3 FALSE       FALSE         
#> 4  2013     1     4 FALSE       FALSE         
#> 5  2013     1     5 FALSE       TRUE          
#> 6  2013     1     6 FALSE       FALSE         
#> # ℹ 359 more rows
…
12.4.2 論理ベクトルの数値的要約

論理ベクトルを数値のコンテキストで使用すると、TRUE は 1 に、FALSE は 0 に変換されます 。これにより、sum() と mean() は論理ベクトルに対して非常に有用になります。sum(x) は TRUE の個数を与え、mean(x) は TRUE の割合を与えます（mean() は単に sum() を length() で割ったものだからです） 。

これにより、たとえば出発が最大でも1時間以内しか遅れなかったフライトの割合や、到着が5時間以上遅れたフライトの数を確認できます 。

flights |>
  group_by(year, month, day) |>
  summarize(
    proportion_delayed = mean(dep_delay <= 60, na.rm = TRUE),
    count_long_delay = sum(arr_delay >= 300, na.rm = TRUE),
    .groups = "drop"
  )
#> # A tibble: 365 × 5
#>    year month   day proportion_delayed count_long_delay
#>   <int> <int> <int>              <dbl>            <int>
#> 1  2013     1     1              0.939                3
#> 2  2013     1     2              0.914                3
#> 3  2013     1     3              0.941                0
#> 4  2013     1     4              0.953                0
#> 5  2013     1     5              0.964                1
#> 6  2013     1     6              0.959                0
#> # ℹ 359 more rows
12.4.3 論理値によるサブセッティング

要約における論理ベクトルの最後の用途は、論理ベクトルを使用して単一の変数を関心のあるサブセットにフィルタリングすることです 。これには base R の [（サブセット）演算子を使用します（詳細は Section 27.2 で学びます） 。

実際に遅延したフライトのみを対象に平均遅延時間を調べたいとしましょう 。一つの方法は、まずフライトをフィルタリングしてから平均を計算することです 。

flights |>
  filter(arr_delay > 0) |>
  group_by(year, month, day) |>
  summarize(
    behind = mean(arr_delay),
    n = n(),
    .groups = "drop"
  )
#> # A tibble: 365 × 5
#>    year month   day behind     n
#>   <int> <int> <int>  <dbl> <int>
#> 1  2013     1     1   32.5   461
#> 2  2013     1     2   32.0   535
#> 3  2013     1     3   27.7   460
#> 4  2013     1     4   28.3   297
#> 5  2013     1     5   22.6   238
#> 6  2013     1     6   24.4   381
#> # ℹ 359 more rows
これは機能しますが、予定より早く到着したフライトの平均遅延も計算したい場合はどうすればよいでしょうか？ 別のフィルタリングステップを実行し、その後2つのデータフレームを結合する方法を考え出す必要があります 。代わりに [ を使用してインラインでフィルタリングを行うことができます。arr_delay[arr_delay > 0] は、正の到着遅延のみを返します 。

これについては Chapter 19 で扱います 。

これにより、次のようになります。

flights |>
  group_by(year, month, day) |>
  summarize(
    behind = mean(arr_delay[arr_delay > 0], na.rm = TRUE),
    ahead = mean(arr_delay[arr_delay < 0], na.rm = TRUE),
    n = n(),
    .groups = "drop"
  )
#> # A tibble: 365 × 6
#>    year month   day behind ahead     n
#>   <int> <int> <int>  <dbl> <dbl> <int>
#> 1  2013     1     1   32.5 -12.5   842
#> 2  2013     1     2   32.0 -14.3   943
#> 3  2013     1     3   27.7 -18.2   914
#> 4  2013     1     4   28.3 -17.0   915
#> 5  2013     1     5   22.6 -14.0   720
#> 6  2013     1     6   24.4 -13.6   832
#> # ℹ 359 more rows
…
if_else() と同様に、~ の両側で変数を使用でき、問題に合わせて必要に応じて変数を組み合わせることができます 。たとえば、case_when() を使用して到着遅延に対して人間が読みやすいラベルを付けることができます 。

flights |>
  mutate(
    status = case_when(
      is.na(arr_delay)      ~ "cancelled",
      arr_delay < -30       ~ "very early",
      arr_delay < -15       ~ "early",
      abs(arr_delay) <= 15  ~ "on time",
      arr_delay < 60        ~ "late",
      arr_delay < Inf       ~ "very late",
    ),
    .keep = "used"
  )
#> # A tibble: 336,776 × 2
#>   arr_delay status 
#>       <dbl> <chr>  
#> 1        11 on time
#> 2        20 late   
#> 3        33 late   
#> 4       -18 early  
#> 5       -25 early  
#> 6        12 on time
#> # ℹ 336,770 more rows
…
