23 階層データ – R for Data Science (2e)
…
このtibbleには6つの行が含まれており、gh_repos の各子に対して1行ずつ対応しています。各行には、26行または30行の名前なしリストが含まれています。これらは名前なしなので、まずは unnest_longer() を使用して、各子を独自の行に配置します。

repos |>
  unnest_longer(json)
#> # A tibble: 176 × 1
#>   json             
#>   <list>           
#> 1 <named list [68]>
#> 2 <named list [68]>
#> 3 <named list [68]>
#> 4 <named list [68]>
#> 5 <named list [68]>
#> 6 <named list [68]>
#> # ℹ 170 more rows

一見すると、状況が改善されていないように見えるかもしれません。行数は増えましたが（6行から176行へ）、json の各要素は依然としてリストのままです。しかし、重要な違いがあります。今や各要素は名前付きリストになっているため、unnest_wider() を使用して各要素を独自の列に配置できるのです。

repos |>
  unnest_longer(json) |>
  unnest_wider(json)
#> # A tibble: 176 × 68
#>         id name        full_name         owner        private html_url       
#>      <int> <chr>       <chr>             <list>       <lgl>   <chr>          
#> 1 61160198 after       gaborcsardi/after <named list> FALSE   https://github…
#> 2 40500181 argufy      gaborcsardi/argu… <named list> FALSE   https://github…
#> 3 36442442 ask         gaborcsardi/ask   <named list> FALSE   https://github…
#> 4 34924886 baseimports gaborcsardi/base… <named list> FALSE   https://github…
#> 5 61620661 citest      gaborcsardi/cite… <named list> FALSE   https://github…
#> 6 33907457 clisymbols  gaborcsardi/clis… <named list> FALSE   https://github…
#> # ℹ 170 more rows
#> # ℹ 62 more variables: description <chr>, fork <lgl>, url <chr>, …
…
repos |>
  unnest_longer(json) |>
  unnest_wider(json) |>
  names() |>
  head(10)
#>  [1] "id"          "name"        "full_name"   "owner"       "private"    
#>  [6] "html_url"    "description" "fork"        "url"         "forks_url"

面白そうなものをいくつか取り出してみましょう。

repos |>
  unnest_longer(json) |>
  unnest_wider(json) |>
  select(id, full_name, owner, description)
#> # A tibble: 176 × 4
#>         id full_name               owner             description             
#>      <int> <chr>                   <list>            <chr>                   
#> 1 61160198 gaborcsardi/after       <named list [17]> Run Code in the Backgro…
#> 2 40500181 gaborcsardi/argufy      <named list [17]> Declarative function ar…
#> 3 36442442 gaborcsardi/ask         <named list [17]> Friendly CLI interactio…
#> 4 34924886 gaborcsardi/baseimports <named list [17]> Do we get warnings for …
#> 5 61620661 gaborcsardi/citest      <named list [17]> Test R package and repo…
#> 6 33907457 gaborcsardi/clisymbols  <named list [17]> Unicode symbols for CLI…
#> # ℹ 170 more rows
…
おっと、このリスト列にも id 列が含まれており、同じデータフレーム内に2つの id 列を持つことはできません。示唆されているように、names_sep を使って問題を解決しましょう。

repos |>
  unnest_longer(json) |>
  unnest_wider(json) |>
  select(id, full_name, owner, description) |>
  unnest_wider(owner, names_sep = "_")
#> # A tibble: 176 × 20
#>         id full_name               owner_login owner_id owner_avatar_url     
#>      <int> <chr>                   <chr>          <int> <chr>                
#> 1 61160198 gaborcsardi/after       gaborcsardi   660288 https://avatars.gith…
#> 2 40500181 gaborcsardi/argufy      gaborcsardi   660288 https://avatars.gith…
#> 3 36442442 gaborcsardi/ask         gaborcsardi   660288 https://avatars.gith…
#> 4 34924886 gaborcsardi/baseimports gaborcsardi   660288 https://avatars.gith…
#> 5 61620661 gaborcsardi/citest      gaborcsardi   660288 https://avatars.gith…
#> 6 33907457 gaborcsardi/clisymbols  gaborcsardi   660288 https://avatars.gith…
#> # ℹ 170 more rows
#> # ℹ 15 more variables: owner_gravatar_id <chr>, owner_url <chr>, …

これもまた横長なデータセットになりますが、owner にはリポジトリを「所有」している人物に関する多くの追加データが含まれていることが分かります。

23.4.2 リレーションデータ

ネストされたデータは、通常なら複数のデータフレームに分散させるようなデータを表現するために使用されることがあります。例えば、ドラマ『ゲーム・オブ・スローンズ』の書籍やテレビシリーズに登場するキャラクターのデータを含む got_chars を見てみましょう。gh_repos と同様にこれはリストなので、まずはこれをtibbleのリスト列に変換することから始めます。

chars <- tibble(json = got_chars)
chars
#> # A tibble: 30 × 1
#>   json             
#>   <list>           
#> 1 <named list [18]>
#> 2 <named list [18]>
#> 3 <named list [18]>
#> 4 <named list [18]>
#> 5 <named list [18]>
#> 6 <named list [18]>
#> # ℹ 24 more rows

json 列には名前付き要素が含まれているので、まずはそれを横に広げます（widening）。

chars |>
  unnest_wider(json)
#> # A tibble: 30 × 18
#>   url                    id name            gender culture    born           
#>   <chr>               <int> <chr>           <chr>  <chr>      <chr>          
#> 1 https://www.anapio…  1022 Theon Greyjoy   Male   "Ironborn" "In 278 AC or …
#> 2 https://www.anapio…  1052 Tyrion Lannist… Male   ""         "In 273 AC, at…
#> 3 https://www.anapio…  1074 Victarion Grey… Male   "Ironborn" "In 268 AC or …
#> 4 https://www.anapio…  1109 Will            Male   ""         ""             
#> 5 https://www.anapio…  1166 Areo Hotah      Male   "Norvoshi" "In 257 AC or …
#> 6 https://www.anapio…  1267 Chett           Male   ""         "At Hag's Mire"
#> # ℹ 24 more rows
#> # ℹ 12 more variables: died <chr>, alive <lgl>, titles <list>, …

そして、読みやすくするためにいくつかの列を選択します。

characters <- chars |>
  unnest_wider(json) |>
  select(id, name, gender, culture, born, died, alive)
characters
#> # A tibble: 30 × 7
#>      id name              gender culture    born              died           
#>   <int> <chr>             <chr>  <chr>      <chr>             <chr>          
#> 1  1022 Theon Greyjoy     Male   "Ironborn" "In 278 AC or 27… ""             
#> 2  1052 Tyrion Lannister  Male   ""         "In 273 AC, at C… ""             
#> 3  1074 Victarion Greyjoy Male   "Ironborn" "In 268 AC or be… ""             
#> 4  1109 Will              Male   ""         ""                "In 297 AC, at…
#> 5  1166 Areo Hotah        Male   "Norvoshi" "In 257 AC or be… ""             
#> 6  1267 Chett             Male   ""         "At Hag's Mire"   "In 299 AC, at…
#> # ℹ 24 more rows
#> # ℹ 1 more variable: alive <lgl>

このデータセットには、多くのリスト列も含まれています。

chars |>
  unnest_wider(json) |>
  select(id, where(is.list))
#> # A tibble: 30 × 8
#>      id titles    aliases    allegiances books     povBooks tvSeries playedBy
#>   <int> <list>    <list>     <list>      <list>    <list>   <list>   <list>  
#> 1  1022 <chr [2]> <chr [4]>  <chr [1]>   <chr [3]> <chr>    <chr>    <chr>   
#> 2  1052 <chr [2]> <chr [11]> <chr [1]>   <chr [2]> <chr>    <chr>    <chr>   
#> 3  1074 <chr [2]> <chr [1]>  <chr [1]>   <chr [3]> <chr>    <chr>    <chr>   
#> 4  1109 <chr [1]> <chr [1]>  <NULL>      <chr [1]> <chr>    <chr>    <chr>   
#> 5  1166 <chr [1]> <chr [1]>  <chr [1]>   <chr [3]> <chr>    <chr>    <chr>   
#> 6  1267 <chr [1]> <chr [1]>  <NULL>      <chr [2]> <chr>    <chr>    <chr>   
#> # ℹ 24 more rows

titles（肩書き）列を調べてみましょう。これは名前なしのリスト列なので、行に展開します。

chars |>
  unnest_wider(json) |>
  select(id, titles) |>
  unnest_longer(titles)
#> # A tibble: 59 × 2
#>      id titles                                              
#>   <int> <chr>                                               
#> 1  1022 Prince of Winterfell                                
#> 2  1022 Lord of the Iron Islands (by law of the green lands)
#> 3  1052 Acting Hand of the King (former)                    
#> 4  1052 Master of Coin (former)                             
#> 5  1074 Lord Captain of the Iron Fleet                      
#> 6  1074 Master of the Iron Victory                          
#> # ℹ 53 more rows

このデータは独自のテーブルにある方が期待通りかもしれません。必要に応じてキャラクターデータと結合するのが簡単だからです。そうしてみましょう。少しのクリーニング（空文字列を含む行の削除と、各行に1つの肩書きしか含まれなくなったため titles から title への改名）が必要です。

titles <- chars |>
  unnest_wider(json) |>
  select(id, titles) |>
  unnest_longer(titles) |>
  filter(titles != "") |>
  rename(title = titles)
titles
#> # A tibble: 52 × 2
#>      id title                                               
#>   <int> <chr>                                               
#> 1  1022 Prince of Winterfell                                
#> 2  1022 Lord of the Iron Islands (by law of the green lands)
#> 3  1052 Acting Hand of the King (former)                    
#> 4  1052 Master of Coin (former)                             
#> 5  1074 Lord Captain of the Iron Fleet                      
#> 6  1074 Master of the Iron Victory                          
#> # ℹ 46 more rows
…
これにより、status と results が得られます。すべて OK なので status 列は削除します。実際の分析では、status != "OK" であるすべての行をキャプチャして、何が問題だったのかを突き止める必要があるでしょう。results は名前なしのリストで、1つまたは2つの要素（理由はすぐに分かります）を含んでいるため、これを行に展開します。

gmaps_cities |>
  unnest_wider(json) |>
  select(-status) |>
  unnest_longer(results)
#> # A tibble: 7 × 2
#>   city       results         
#>   <chr>      <list>          
#> 1 Houston    <named list [5]>
#> 2 Washington <named list [5]>
#> 3 Washington <named list [5]>
#> 4 New York   <named list [5]>
#> 5 Chicago    <named list [5]>
#> 6 Arlington  <named list [5]>
#> # ℹ 1 more row

これで results は名前付きリストになったので、unnest_wider() を使用します。

locations <- gmaps_cities |>
  unnest_wider(json) |>
  select(-status) |>
  unnest_longer(results) |>
  unnest_wider(results)
locations
#> # A tibble: 7 × 6
#>   city       address_components formatted_address   geometry        
#>   <chr>      <list>             <chr>               <list>          
#> 1 Houston    <list [4]>         Houston, TX, USA    <named list [4]>
#> 2 Washington <list [2]>         Washington, USA     <named list [4]>
#> 3 Washington <list [4]>         Washington, DC, USA <named list [4]>
#> 4 New York   <list [3]>         New York, NY, USA   <named list [4]>
#> 5 Chicago    <list [4]>         Chicago, IL, USA    <named list [4]>
#> 6 Arlington  <list [4]>         Arlington, TX, USA  <named list [4]>
#> # ℹ 1 more row
#> # ℹ 2 more variables: place_id <chr>, types <list>

これで、なぜ2つの都市で2つの結果が得られたのかが分かります。「Washington」はワシントン州とワシントンD.C.の両方に一致し、「Arlington」はバージニア州アーリントンとテキサス州アーリントンの両方に一致したからです。ここからは、いくつかの異なる方向へ進むことができます。

例えば、geometry リスト列に格納されている一致した場所の正確な位置を特定したいかもしれません。

locations |>
  select(city, formatted_address, geometry) |>
  unnest_wider(geometry)
#> # A tibble: 7 × 6
#>   city       formatted_address   bounds           location     location_type
#>   <chr>      <chr>               <list>           <list>       <chr>        
#> 1 Houston    Houston, TX, USA    <named list [2]> <named list> APPROXIMATE  
#> 2 Washington Washington, USA     <named list [2]> <named list> APPROXIMATE  
#> 3 Washington Washington, DC, USA <named list [2]> <named list> APPROXIMATE  
#> 4 New York   New York, NY, USA   <named list [2]> <named list> APPROXIMATE  
#> 5 Chicago    Chicago, IL, USA    <named list [2]> <named list> APPROXIMATE  
#> 6 Arlington  Arlington, TX, USA  <named list [2]> <named list> APPROXIMATE  
#> # ℹ 1 more row
#> # ℹ 1 more variable: viewport <list>

これにより、新しい bounds（矩形領域）と location（点）が得られます。location を展開して、緯度（lat）と経度（lng）を確認できます。

locations |>
  select(city, formatted_address, geometry) |>
  unnest_wider(geometry) |>
  unnest_wider(location)
#> # A tibble: 7 × 7
#>   city       formatted_address   bounds             lat    lng location_type
#>   <chr>      <chr>               <list>           <dbl>  <dbl> <chr>        
#> 1 Houston    Houston, TX, USA    <named list [2]>  29.8  -95.4 APPROXIMATE  
#> 2 Washington Washington, USA     <named list [2]>  47.8 -121.  APPROXIMATE  
#> 3 Washington Washington, DC, USA <named list [2]>  38.9  -77.0 APPROXIMATE  
#> 4 New York   New York, NY, USA   <named list [2]>  40.7  -74.0 APPROXIMATE  
#> 5 Chicago    Chicago, IL, USA    <named list [2]>  41.9  -87.6 APPROXIMATE  
#> 6 Arlington  Arlington, TX, USA  <named list [2]>  32.7  -97.1 APPROXIMATE  
#> # ℹ 1 more row
#> # ℹ 1 more variable: viewport <list>

境界（bounds）を抽出するには、さらにいくつかのステップが必要です。

locations |>
  select(city, formatted_address, geometry) |>
  unnest_wider(geometry) |>
  # 関心のある変数に焦点を当てる
  select(!location:viewport) |>
  unnest_wider(bounds)
#> # A tibble: 7 × 4
#>   city       formatted_address   northeast        southwest       
#>   <chr>      <chr>               <list>           <list>          
#> 1 Houston    Houston, TX, USA    <named list [2]> <named list [2]>
#> 2 Washington Washington, USA     <named list [2]> <named list [2]>
#> 3 Washington Washington, DC, USA <named list [2]> <named list [2]>
#> 4 New York   New York, NY, USA   <named list [2]> <named list [2]>
#> 5 Chicago    Chicago, IL, USA    <named list [2]> <named list [2]>
#> 6 Arlington  Arlington, TX, USA  <named list [2]> <named list [2]>
#> # ℹ 1 more row

次に、southwest（南西）と northeast（北東）（矩形の角）の名前を変更し、names_sep を使用して、短くも分かりやすい名前を作成します。

locations |>
  select(city, formatted_address, geometry) |>
  unnest_wider(geometry) |>
  select(!location:viewport) |>
  unnest_wider(bounds) |>
  rename(ne = northeast, sw = southwest) |>
  unnest_wider(c(ne, sw), names_sep = "_")
#> # A tibble: 7 × 6
#>   city       formatted_address   ne_lat ne_lng sw_lat sw_lng
#>   <chr>      <chr>                <dbl>  <dbl>  <dbl>  <dbl>
#> 1 Houston    Houston, TX, USA      30.1  -95.0   29.5  -95.8
#> 2 Washington Washington, USA       49.0 -117.    45.5 -125. 
#> 3 Washington Washington, DC, USA   39.0  -76.9   38.8  -77.1
#> 4 New York   New York, NY, USA     40.9  -73.7   40.5  -74.3
#> 5 Chicago    Chicago, IL, USA      42.0  -87.5   41.6  -87.9
#> 6 Arlington  Arlington, TX, USA    32.8  -97.0   32.6  -97.2
#> # ℹ 1 more row
…
titles で使用した手順に従って、『ゲーム・オブ・スローンズ』のキャラクターの別名（aliases）、忠誠心（allegiances）、書籍（books）、テレビシリーズ（TV series）についても同様のテーブルを作成してください。

次のコードを1行ずつ説明してください。なぜこのコードは興味深いのでしょうか？ なぜ got_chars では機能するが、一般的には機能しない可能性があるのでしょうか？

    #| results: false
    tibble(json = got_chars) |>
      unnest_wider(json) |>
      select(id, where(is.list)) |>
      pivot_longer(
        where(is.list),
        names_to = "name",
        values_to = "value"
      ) |>
      unnest_longer(value)
#> # A tibble: 479 × 3
#>      id name    value                                               
#>   <int> <chr>   <chr>                                               
#> 1  1022 titles  Prince of Winterfell                                
#> 2  1022 titles  Lord of the Iron Islands (by law of the green lands)
#> 3  1022 aliases Prince of Fools                                     
#> 4  1022 aliases Theon Turncloak                                     
#> 5  1022 aliases Reek                                                
#> 6  1022 aliases Theon Kinslayer                                     
#> # ℹ 473 more rows
…
