20 スプレッドシート – R for Data Science (2e)
…
Figure 20.2: 3つのワークシートを含む Excel での penguins.xlsx という名前のスプレッドシート。

read_excel() の sheet 引数を使用して、スプレッドシートから単一のワークシートを読み込むことができます。 これまで私たちが頼ってきたデフォルトの設定は、最初のシートです。

read_excel("data/penguins.xlsx", sheet = "Torgersen Island")
#> # A tibble: 52 × 8
#>   species island    bill_length_mm     bill_depth_mm      flipper_length_mm
#>   <chr>   <chr>     <chr>              <chr>              <chr>            
#> 1 Adelie  Torgersen 39.1               18.7               181              
#> 2 Adelie  Torgersen 39.5               17.399999999999999 186              
#> 3 Adelie  Torgersen 40.299999999999997 18                 195              
#> 4 Adelie  Torgersen NA                 NA                 NA               
#> 5 Adelie  Torgersen 36.700000000000003 19.3               193              
#> 6 Adelie  Torgersen 39.299999999999997 20.6               190              
#> # ℹ 46 more rows
#> # ℹ 3 more variables: body_mass_g <chr>, sex <chr>, year <dbl>

数値データを含んでいるように見えるいくつかの変数は、文字列 "NA" が真の NA として認識されていないため、文字として読み込まれます。

penguins_torgersen <- read_excel("data/penguins.xlsx", sheet = "Torgersen Island", na = "NA")

penguins_torgersen
#> # A tibble: 52 × 8
#>   species island    bill_length_mm bill_depth_mm flipper_length_mm
#>   <chr>   <chr>              <dbl>         <dbl>             <dbl>
#> 1 Adelie  Torgersen           39.1          18.7               181
#> 2 Adelie  Torgersen           39.5          17.4               186
#> 3 Adelie  Torgersen           40.3          18                 195
#> 4 Adelie  Torgersen           NA            NA                  NA
#> 5 Adelie  Torgersen           36.7          19.3               193
#> 6 Adelie  Torgersen           39.3          20.6               190
#> # ℹ 46 more rows
#> # ℹ 3 more variables: body_mass_g <dbl>, sex <chr>, year <dbl>
…
このケースでは、完全なペンギンのデータセットがスプレッドシート内の 3 つのワークシートに分散しています。 各ワークシートの列数は同じですが、行数は異なります。

dim(penguins_torgersen)
#> [1] 52  8
dim(penguins_biscoe)
#> [1] 168   8
dim(penguins_dream)
#> [1] 124   8

これらは bind_rows() で結合できます。

penguins <- bind_rows(penguins_torgersen, penguins_biscoe, penguins_dream)
penguins
#> # A tibble: 344 × 8
#>   species island    bill_length_mm bill_depth_mm flipper_length_mm
#>   <chr>   <chr>              <dbl>         <dbl>             <dbl>
#> 1 Adelie  Torgersen           39.1          18.7               181
#> 2 Adelie  Torgersen           39.5          17.4               186
#> 3 Adelie  Torgersen           40.3          18                 195
#> 4 Adelie  Torgersen           NA            NA                  NA
#> 5 Adelie  Torgersen           36.7          19.3               193
#> 6 Adelie  Torgersen           39.3          20.6               190
#> # ℹ 338 more rows
#> # ℹ 3 more variables: body_mass_g <dbl>, sex <chr>, year <dbl>
…
Figure 20.3: Excelでの deaths.xlsx という名前のスプレッドシート。

このスプレッドシートは、readxl パッケージで提供されているサンプルスプレッドシートの 1 つです。 readxl_example() 関数を使用して、パッケージがインストールされているディレクトリ内のシステム上にあるスプレッドシートの場所を特定できます。 この関数はスプレッドシートへのパスを返し、それを通常どおり read_excel() で使用できます。

deaths_path <- readxl_example("deaths.xlsx")
deaths <- read_excel(deaths_path)
#> New names:
#> • `` -> `...2`
#> • `` -> `...3`
#> • `` -> `...4`
#> • `` -> `...5`
#> • `` -> `...6`
deaths
#> # A tibble: 18 × 6
#>   `Lots of people`    ...2       ...3  ...4     ...5          ...6           
#>   <chr>               <chr>      <chr> <chr>    <chr>         <chr>          
#> 1 simply cannot resi… <NA>       <NA>  <NA>     <NA>          some notes     
#> 2 at                  the        top   <NA>     of            their spreadsh…
#> 3 or                  merging    <NA>  <NA>     <NA>          cells          
#> 4 Name                Profession Age   Has kids Date of birth Date of death  
#> 5 David Bowie         musician   69    TRUE     17175         42379          
#> 6 Carrie Fisher       actor      60    TRUE     20749         42731          
#> # ℹ 12 more rows

上部の 3 行と下部の 4 行はデータフレームの一部ではありません。 skip 引数と n_max 引数を使用してこれらの余分な行を除去することも可能ですが、セル範囲を使用することをお勧めします。 Excel では、左上のセルは A1 です。 列を右に移動するにつれて、セルのラベルはアルファベット順に進みます（例：B1、C1 など）。 そして、列を下に移動するにつれて、セルラベルの数字が増加します（例：A2、A3 など）。

ここで読み込みたいデータはセル A5 から始まり、セル F15 で終わります。 スプレッドシートの表記では、これは A5:F15 であり、これを range 引数に渡します。

read_excel(deaths_path, range = "A5:F15")
#> # A tibble: 10 × 6
#>   Name          Profession   Age `Has kids` `Date of birth`    
#>   <chr>         <chr>      <dbl> <lgl>      <dttm>             
#> 1 David Bowie   musician      69 TRUE       1947-01-08 00:00:00
#> 2 Carrie Fisher actor         60 TRUE       1956-10-21 00:00:00
#> 3 Chuck Berry   musician      90 TRUE       1926-10-18 00:00:00
#> 4 Bill Paxton   actor         61 TRUE       1955-05-17 00:00:00
#> 5 Prince        musician      57 TRUE       1958-06-07 00:00:00
#> 6 Alan Rickman  actor         69 FALSE      1946-02-21 00:00:00
#> # ℹ 4 more rows
#> # ℹ 1 more variable: `Date of death` <dttm>
…
ここでは、ショートコードを使用して列型を少し異なる方法で定義したことに注意してください。 たとえば、“dcccc” は “double, character, character, character, character”（数値[倍精度]、文字、文字、文字、文字）の略です。 Google スプレッドシートからも個別のシートを読み込むことが可能です。 penguins Google スプレッドシート から “Torgersen Island” シートを読み込んでみましょう。

penguins_sheet_id <- "1aFu8lnD_g0yjF5O-K6SFgSEWiHPpgvFCF0NY9D6LXnY"
read_sheet(penguins_sheet_id, sheet = "Torgersen Island")
#> ✔ Reading from penguins.
#> ✔ Range ''Torgersen Island''.
#> # A tibble: 52 × 8
#>   species island    bill_length_mm bill_depth_mm flipper_length_mm
#>   <chr>   <chr>     <list>         <list>        <list>           
#> 1 Adelie  Torgersen <dbl [1]>      <dbl [1]>     <dbl [1]>        
#> 2 Adelie  Torgersen <dbl [1]>      <dbl [1]>     <dbl [1]>        
#> 3 Adelie  Torgersen <dbl [1]>      <dbl [1]>     <dbl [1]>        
#> 4 Adelie  Torgersen <chr [1]>      <chr [1]>     <chr [1]>        
#> 5 Adelie  Torgersen <dbl [1]>      <dbl [1]>     <dbl [1]>        
#> 6 Adelie  Torgersen <dbl [1]>      <dbl [1]>     <dbl [1]>        
#> # ℹ 46 more rows
#> # ℹ 3 more variables: body_mass_g <list>, sex <chr>, year <dbl>

sheet_names() を使用して、Google スプレッドシート内のすべてのシートのリストを取得できます。

sheet_names(penguins_sheet_id)
#> [1] "Torgersen Island" "Biscoe Island"    "Dream Island"

最後に、read_excel() と同様に、read_sheet() で range を定義することで Google スプレッドシートの一部を読み込むことができます。 以下の例では、googlesheets4 パッケージに付属しているサンプルの Google スプレッドシートを特定するために gs4_example() 関数を使用していることにも注意してください。

deaths_url <- gs4_example("deaths")
deaths <- read_sheet(deaths_url, range = "A5:F15")
#> ✔ Reading from deaths.
#> ✔ Range A5:F15.
deaths
#> # A tibble: 10 × 6
#>   Name          Profession   Age `Has kids` `Date of birth`    
#>   <chr>         <chr>      <dbl> <lgl>      <dttm>             
#> 1 David Bowie   musician      69 TRUE       1947-01-08 00:00:00
#> 2 Carrie Fisher actor         60 TRUE       1956-10-21 00:00:00
#> 3 Chuck Berry   musician      90 TRUE       1926-10-18 00:00:00
#> 4 Bill Paxton   actor         61 TRUE       1955-05-17 00:00:00
#> 5 Prince        musician      57 TRUE       1958-06-07 00:00:00
#> 6 Alan Rickman  actor         69 FALSE      1946-02-21 00:00:00
#> # ℹ 4 more rows
#> # ℹ 1 more variable: `Date of death` <dttm>
…
