14 文字列 – R for Data Science (2e)
…
実際に separate_longer_position() を目にすることは稀ですが、各文字が一つの値を記録するために使用されている非常にコンパクトな形式を使用している古いデータセットもあります。

df2 <- tibble(x = c("1211", "131", "21"))
df2 |>
  separate_longer_position(x, width = 1)
#> # A tibble: 9 × 1
#>   x    
#>   <chr>
#> 1 1    
#> 2 2    
#> 3 1    
#> 4 1    
#> 5 1    
#> 6 3    
#> # ℹ 3 more rows
…
このセクションでは、文字列の中の個々の文字（letters）を扱うための関数を紹介します 。文字列の長さを求め、部分文字列を抽出し、プロットやテーブルで長い文字列を処理する方法を学びます 。

14.5.1 長さ

str_length() は、文字列の中の文字数を教えてくれます。

str_length(c("a", "R for data science", NA))
#> [1]  1 18 NA

これと count() を併用して米国の赤ちゃんの名（babynames）の長さの分布を調べ、filter() を使って最も長い名前を確認することができます。それらは15文字であることがわかります 。

babynames |>
  count(length = str_length(name), wt = n)
#> # A tibble: 14 × 2
#>   length        n
#>    <int>    <int>
#> 1      2   338150
#> 2      3  8589596
#> 3      4 48506739
#> 4      5 87011607
#> 5      6 90749404
#> 6      7 72120767
#> # ℹ 8 more rows

babynames |>
  filter(str_length(name) == 15) |>
  count(name, wt = n, sort = TRUE)
#> # A tibble: 34 × 2
#>   name                n
#>   <chr>           <int>
#> 1 Franciscojavier   123
#> 2 Christopherjohn   118
#> 3 Johnchristopher   118
#> 4 Christopherjame   108
#> 5 Christophermich    52
#> 6 Ryanchristopher    45
#> # ℹ 28 more rows
…
文字列が短すぎても str_sub() は失敗しません。可能な限り多くの文字を返します 。

str_sub("a", 1, 5)
#> [1] "a"

str_sub() を mutate() と併用して、各名前の最初と最後の文字を見つけることができます 。

babynames |>
  mutate(
    first = str_sub(name, 1, 1),
    last = str_sub(name, -1, -1)
  )
#> # A tibble: 1,924,665 × 7
#>    year sex   name          n   prop first last 
#>   <dbl> <chr> <chr>     <int>  <dbl> <chr> <chr>
#> 1  1880 F     Mary       7065 0.0724 M     y    
#> 2  1880 F     Anna       2604 0.0267 A     a    
#> 3  1880 F     Emma       2003 0.0205 E     a    
#> 4  1880 F     Elizabeth  1939 0.0199 E     h    
#> 5  1880 F     Minnie     1746 0.0179 M     e    
#> 6  1880 F     Margaret   1578 0.0162 M     t    
#> # ℹ 1,924,659 more rows
…
